<svg width="151" height="28" viewBox="0 0 151 28" fill="none" xmlns="http://www.w3.org/2000/svg">
<g clip-path="url(#clip0)">
<path d="M149.754 18.2069L149.351 18.5287C148.858 18.9006 148.255 19.0886 147.642 19.0611C147.093 19.0611 146.682 18.9149 146.392 18.6223C146.102 18.3297 145.962 17.8187 145.962 17.1868V10.4033H149.927V6.82625H145.958V3.38379H141.734V17.2707C141.734 19.026 142.222 20.3913 143.182 21.3236C144.142 22.2559 145.496 22.7259 147.214 22.7259C147.867 22.7298 148.518 22.6399 149.147 22.4587C149.743 22.2986 150.299 22.015 150.781 21.6259L150.992 21.4504L149.754 18.2069Z" fill="#008CF6"/>
<path d="M61.8076 7.51869C60.5912 6.8621 59.2319 6.52675 57.8545 6.54349C56.4146 6.52388 54.9938 6.88051 53.7286 7.57916C52.5354 8.26603 51.5496 9.27088 50.8775 10.4853C50.1843 11.7512 49.8295 13.1794 49.8484 14.6279C49.8288 16.0971 50.191 17.5456 50.8986 18.8271C51.6252 20.0559 52.677 21.0527 53.934 21.704C55.1844 22.3124 56.5421 22.6604 57.927 22.7274C59.3119 22.7944 60.696 22.5791 61.9977 22.0941C63.0305 21.6858 63.9424 21.0141 64.6453 20.1437L64.8373 19.896L62.5334 17.1654L62.2473 17.456C61.2393 18.48 60.0087 18.9793 58.4881 18.9793C57.5762 19.0057 56.6733 18.7892 55.8693 18.3512C55.3081 18.0319 54.8464 17.5588 54.5369 16.986L65.7243 14.7644V14.4504C65.7557 12.9895 65.3918 11.5477 64.6722 10.2824C63.9977 9.10137 63.0034 8.14207 61.8076 7.51869ZM61.4793 12.5234L53.9686 13.9882C54.0396 12.8667 54.391 11.9539 55.0169 11.2732C55.7445 10.4931 56.6737 10.1225 57.8545 10.1225C58.7211 10.096 59.5712 10.3667 60.2678 10.8909C60.82 11.3032 61.2411 11.8707 61.4793 12.5234Z" fill="#008CF6"/>
<path d="M79.6777 11.5074C78.5053 11.0551 77.3014 10.692 76.0759 10.4211C75.0353 10.1597 74.204 9.92565 73.6069 9.72281C73.0973 9.56271 72.6237 9.30225 72.2131 8.9563C72.0613 8.81868 71.9413 8.64874 71.8617 8.45859C71.782 8.26844 71.7447 8.06278 71.7523 7.85628C71.7467 7.5318 71.8232 7.2113 71.9745 6.92546C72.1258 6.63962 72.3467 6.39802 72.6162 6.22379C73.2537 5.78105 74.2559 5.55675 75.5979 5.55675C76.4753 5.56604 77.3474 5.69729 78.1898 5.94683C79.0926 6.20446 79.9587 6.58013 80.7663 7.06441L81.1388 7.28676L82.5576 3.73312L82.3042 3.56149C81.3579 2.93964 80.3156 2.48342 79.2208 2.21181C78.0453 1.90576 76.8363 1.75241 75.6228 1.75541C73.8776 1.75541 72.3705 2.03237 71.1417 2.57848C69.913 3.1246 68.9741 3.90086 68.3502 4.85265C67.7386 5.79215 67.417 6.89575 67.4267 8.02206C67.4267 9.40685 67.7838 10.5322 68.4961 11.3787C69.18 12.1558 70.0353 12.7573 70.992 13.1341C72.1843 13.5735 73.4027 13.9364 74.6398 14.2204C75.6804 14.4798 76.5118 14.7139 77.1089 14.9167C77.6198 15.0762 78.0889 15.3501 78.4816 15.7184C78.6386 15.8515 78.7636 16.0192 78.8471 16.2088C78.9306 16.3985 78.9704 16.6049 78.9635 16.8125C78.9635 17.4503 78.6659 17.9535 78.0496 18.3553C77.4333 18.7571 76.3966 18.9989 75.0353 18.9989C73.888 18.9941 72.7489 18.8011 71.662 18.4275C70.6512 18.0796 69.7031 17.5664 68.8551 16.9081L68.4711 16.6058L66.9141 20.1575L67.1233 20.3525C67.9739 21.0976 69.1297 21.7022 70.5638 22.1488C72.0156 22.5951 73.5243 22.8211 75.0411 22.8198C76.7863 22.8198 78.2954 22.5428 79.5203 21.9986C80.7452 21.4545 81.709 20.686 82.3176 19.7479C82.9496 18.8148 83.2846 17.7072 83.2776 16.5746C83.2776 15.2093 82.909 14.0937 82.1851 13.2784C81.5065 12.4863 80.6449 11.8778 79.6777 11.5074Z" fill="#008CF6"/>
<path d="M47.1142 3.69397C45.7703 2.59004 43.8657 2.03027 41.437 2.03027H33.5807L29.5488 22.529H33.9493L35.059 16.748H39.3577L42.5505 22.529H47.2409L43.6852 16.1161C45.2323 15.6375 46.6013 14.6961 47.6134 13.4148C48.6597 12.0358 49.1896 10.3351 49.1896 8.35933C49.1896 6.38357 48.4927 4.79595 47.1142 3.69397ZM44.8103 8.6987C44.8103 10.0952 44.3822 11.1348 43.5067 11.872C42.6312 12.6093 41.3237 12.972 39.6668 12.972H35.827L37.2304 5.89207H41.0607C42.3029 5.89207 43.2532 6.14173 43.8964 6.63908C44.5069 7.09352 44.8103 7.76641 44.8103 8.6987Z" fill="#008CF6"/>
<path d="M101.862 6.7113H96.6516L89.9837 12.9877V0.846436H85.7656V22.5291H89.9837V18.3377L92.1532 16.2507L97.1469 22.5291H102.315L95.2712 13.4363L101.862 6.7113Z" fill="#008CF6"/>
<path d="M119.017 6.71118H114.799V22.529H119.017V6.71118Z" fill="#008CF6"/>
<path d="M135.452 7.54812C134.215 6.86677 132.826 6.52019 131.42 6.54172C130.41 6.53206 129.408 6.72425 128.471 7.10733C127.89 7.35581 127.354 7.69833 126.881 8.12154V6.7114H122.83V28.0001H127.054V21.2244C128.206 22.223 129.675 22.7262 131.426 22.7262C132.832 22.7489 134.221 22.403 135.457 21.7217C136.651 21.0621 137.636 20.0719 138.297 18.8663C138.986 17.5648 139.334 16.1055 139.309 14.6281C139.335 13.1558 138.984 11.7018 138.289 10.4094C137.629 9.2024 136.645 8.21033 135.452 7.54812ZM135.035 14.6281C135.035 15.9466 134.651 16.9686 133.883 17.778C133.115 18.5874 132.197 18.9482 131.017 18.9482C130.298 18.96 129.588 18.7833 128.957 18.4353C128.347 18.0728 127.848 17.5472 127.513 16.9159C127.149 16.211 126.967 15.4238 126.985 14.6281C126.968 13.8284 127.152 13.0376 127.52 12.3305C127.852 11.7033 128.353 11.1855 128.964 10.8385C129.591 10.4749 130.302 10.2883 131.024 10.2982C132.205 10.2982 133.136 10.6883 133.893 11.4821C134.649 12.2759 135.035 13.3018 135.035 14.6281Z" fill="#008CF6"/>
<path d="M118.756 0.692288C118.256 0.230389 117.6 -0.0176472 116.924 -0.000105727C116.587 -0.00854471 116.251 0.0506743 115.936 0.174166C115.621 0.297657 115.333 0.482998 115.089 0.719593C114.842 0.941455 114.646 1.21502 114.513 1.52143C114.38 1.82784 114.315 2.15981 114.321 2.49446C114.317 2.83313 114.383 3.16885 114.515 3.47972C114.648 3.79059 114.843 4.06962 115.089 4.29858C115.591 4.75932 116.248 5.0065 116.924 4.98903C117.265 5.00081 117.604 4.94204 117.922 4.8163C118.239 4.69056 118.528 4.50047 118.771 4.25763C119.012 4.01714 119.203 3.72943 119.331 3.41194C119.459 3.09445 119.523 2.75379 119.518 2.41059C119.525 2.08454 119.461 1.76098 119.329 1.46364C119.197 1.1663 119.001 0.902735 118.756 0.692288Z" fill="#008CF6"/>
<path d="M107.323 8.2208V6.71119H103.271V22.529H107.495V14.8463C107.495 13.4518 107.841 12.383 108.53 11.6672C109.219 10.9514 110.168 10.573 111.423 10.573C111.67 10.5756 111.917 10.6017 112.159 10.651L112.602 10.7349V6.5415H112.218C110.083 6.5415 108.442 7.10517 107.323 8.2208Z" fill="#008CF6"/>
<path d="M14.166 13.0001H12.2244H9.99937V10.7752V8.8335" stroke="#221B38" stroke-width="2" stroke-linecap="round" stroke-linejoin="round"/>
<path d="M24.8164 13.8333C24.3081 11.625 22.8331 9.79166 20.8664 8.8C19.8581 8.29167 18.7081 8 17.4997 8C14.2331 8 12.0831 10.0333 9.99978 13" stroke="#221B38" stroke-width="2" stroke-linecap="round" stroke-linejoin="round"/>
<path d="M20.8334 18H22.775H25V20.225V22.1666" stroke="#221B38" stroke-width="2" stroke-linecap="round" stroke-linejoin="round"/>
<path d="M10.1834 17.1667C10.6917 19.3751 12.1667 21.2084 14.1334 22.2001C15.1417 22.7084 16.2917 23.0001 17.5 23.0001C20.7667 23.0001 22.9167 20.9667 25 18.0001" stroke="#221B38" stroke-width="2" stroke-linecap="round" stroke-linejoin="round"/>
</g>
<defs>
<clipPath id="clip0">
<rect width="151" height="28" fill="white"/>
</clipPath>
</defs>
</svg>
